…
#### 2. Tables for Population & Demography (theme 11)

``` r
(population_tables <- statistical_tables("11"))
#> # A tibble: 673 × 6
#>    theme_name                theme_id table_name node_type dataflow_id table_url
#>    <chr>                     <chr>    <chr>      <chr>     <chr>       <chr>    
#>  1 Population and Demography 11       "Foreign … istab     <NA>        https://…
#>  2 Population and Demography 11       "Foreign-… istab     <NA>        https://…
#>  3 Population and Demography 11       "Foreign-… istab     <NA>        https://…
#>  4 Population and Demography 11       "Median A… istab     <NA>        https://…
#>  5 Population and Demography 11       "Number a… istab     <NA>        https://…
#>  6 Population and Demography 11       "Populati… istab     <NA>        https://…
#>  7 Population and Demography 11       "Populati… istab     <NA>        https://…
#>  8 Population and Demography 11       "Populati… istab     <NA>        https://…
#>  9 Population and Demography 11       "Populati… istab     <NA>        https://…
#> 10 Population and Demography 11       "Populati… istab     <NA>        https://…
#> # ℹ 663 more rows
```

#### 3. SDMX dataflows only

``` r
(population_dataflows <- dplyr::filter(
  population_tables,
  node_type == "dataflow"
))
#> # A tibble: 86 × 6
#>    theme_name                theme_id table_name node_type dataflow_id table_url
#>    <chr>                     <chr>    <chr>      <chr>     <chr>       <chr>    
#>  1 Population and Demography 11       Age depen… dataflow  TR,DF_ADNK… https://…
#>  2 Population and Demography 11       Age depen… dataflow  TR,DF_ADNK… https://…
#>  3 Population and Demography 11       Annual gr… dataflow  TR,DF_ADNK… https://…
#>  4 Population and Demography 11       Annual gr… dataflow  TR,DF_ADNK… https://…
#>  5 Population and Demography 11       Average s… dataflow  TR,DF_ADNK… https://…
#>  6 Population and Demography 11       Foreign p… dataflow  TR,DF_ADNK… https://…
#>  7 Population and Demography 11       Foreign p… dataflow  TR,DF_ADNK… https://…
#>  8 Population and Demography 11       Foreign-b… dataflow  TR,DF_ADNK… https://…
#>  9 Population and Demography 11       Foreign-b… dataflow  TR,DF_ADNK… https://…
#> 10 Population and Demography 11       Life Expe… dataflow  TR,DF_DNG_… https://…
#> # ℹ 76 more rows
```
…
#### 5. Download one dataset

``` r
(population_observations <- statistical_data(
  population_dataflows$dataflow_id[1]
))
#> # A tibble: 54 × 4
#>    ADNKS_GOSTERGE ADNKS_GOSTERGE_label                  obsTime obsValue
#>    <chr>          <chr>                                 <chr>      <dbl>
#>  1 COCUK_BAG_ORAN Child dependency ratio % (0-14 years) 2007        39.7
#>  2 COCUK_BAG_ORAN Child dependency ratio % (0-14 years) 2008        39.3
#>  3 COCUK_BAG_ORAN Child dependency ratio % (0-14 years) 2009        38.8
#>  4 COCUK_BAG_ORAN Child dependency ratio % (0-14 years) 2010        38.1
#>  5 COCUK_BAG_ORAN Child dependency ratio % (0-14 years) 2011        37.5
#>  6 COCUK_BAG_ORAN Child dependency ratio % (0-14 years) 2012        36.9
#>  7 COCUK_BAG_ORAN Child dependency ratio % (0-14 years) 2013        36.3
#>  8 COCUK_BAG_ORAN Child dependency ratio % (0-14 years) 2014        35.8
#>  9 COCUK_BAG_ORAN Child dependency ratio % (0-14 years) 2015        35.4
#> 10 COCUK_BAG_ORAN Child dependency ratio % (0-14 years) 2016        34.9
#> # ℹ 44 more rows
```
…
#### 7. All portal resources

``` r
(population_resources <- statistical_resources("11"))
#> # A tibble: 718 × 6
#>    theme_name      theme_id resource_name resource_type dataflow_id resource_url
#>    <chr>           <chr>    <chr>         <chr>         <chr>       <chr>       
#>  1 Population and… 11       "The Results… press         <NA>        https://ver…
#>  2 Population and… 11       "Urban-Rural… press         <NA>        https://ver…
#>  3 Population and… 11       "Foreign pop… istab         <NA>        https://ver…
#>  4 Population and… 11       "Foreign-bor… istab         <NA>        https://ver…
#>  5 Population and… 11       "Foreign-bor… istab         <NA>        https://ver…
#>  6 Population and… 11       "Median Age … istab         <NA>        https://ver…
#>  7 Population and… 11       "Number and … istab         <NA>        https://ver…
#>  8 Population and… 11       "Population … istab         <NA>        https://ver…
#>  9 Population and… 11       "Population … istab         <NA>        https://ver…
#> 10 Population and… 11       "Population … istab         <NA>        https://ver…
#> # ℹ 708 more rows
```
…
### Geographic Data

#### 1. List available geographic variables

``` r
(geo_variable_catalog <- geo_data())
#> # A tibble: 80 × 4
#>    var_name                                        var_num var_levels var_period
#>    <chr>                                           <chr>   <list>     <chr>     
#>  1 Rate of population served by municipal waste s… CVRBA-… <int [2]>  yillik    
#>  2 Ratio of Population Served by Wastewater Treat… CVRAS-… <int [2]>  yillik    
#>  3 Daily Per Capita Wastewater Amount (L/Capita-D… CVRAS-… <int [2]>  yillik    
#>  4 Ratio of Population Provided with Sewerage Ser… CVRAS-… <int [2]>  yillik    
#>  5 Proportion of Population with Potable Water Ne… CVRBS-… <int [2]>  yillik    
#>  6 Ratio of Population Served by Drinking Water T… CVRBS-… <int [2]>  yillik    
#>  7 Total electricity consumption per capita (kWh)  ENR-GK… <int [1]>  yillik    
#>  8 Average Socioeconomic Level Scores              ses123  <int [2]>  yillik    
#>  9 Mean Years of Schooling (year)                  ULE-GK… <int [2]>  yillik    
#> 10 Number of Illiterate                            ULE-GK… <int [3]>  yillik    
#> # ℹ 70 more rows
```

#### 2. List geographic variables in Turkish

``` r
(geo_variable_catalog_tr <- geo_data(lang = "tr"))
#> # A tibble: 80 × 4
#>    var_name                                        var_num var_levels var_period
#>    <chr>                                           <chr>   <list>     <chr>     
#>  1 Atık hizmeti verilen belediye nüfusunun toplam… CVRBA-… <int [2]>  yillik    
#>  2 Atıksu Arıtma Hizmeti Verilen Nüfus Oranı (%)   CVRAS-… <int [2]>  yillik    
#>  3 Kişi Başı Günlük Atıksu Miktarı (L/Kişi-Gün)    CVRAS-… <int [2]>  yillik    
#>  4 Kanalizasyon Hizmeti Verilen Nüfus Oranı (%)    CVRAS-… <int [2]>  yillik    
#>  5 İçme Suyu Şebekesi Bulunan Nüfus Oranı (%)      CVRBS-… <int [2]>  yillik    
#>  6 İçme Suyu Arıtma Hizmeti Verilen Nüfus Oranı (… CVRBS-… <int [2]>  yillik    
#>  7 Kişi Başına Elektrik Tüketimi (kWh)             ENR-GK… <int [1]>  yillik    
#>  8 Ortalama Sosyoekonomik Seviye Skorları          ses123  <int [2]>  yillik    
#>  9 Ortalama Eğitim Süresi (yıl)                    ULE-GK… <int [2]>  yillik    
#> 10 Okuma Yazma Bilmeyen Sayısı                     ULE-GK… <int [3]>  yillik    
#> # ℹ 70 more rows
```

#### 3. Download data for a specific variable

``` r
(population_values <- geo_data(
  var_num = "ADNKS-GK137473-O29001",
  var_level = 3
))
#> # A tibble: 405 × 3
#>    code  date  population_of_sre_1_sre_2_provinces_and_districts
#>    <chr> <chr> <chr>                                            
#>  1 39    2025  379595                                           
#>  2 39    2024  379031                                           
#>  3 39    2023  377156                                           
#>  4 39    2022  369347                                           
#>  5 39    2021  366363                                           
#>  6 8     2025  167531                                           
#>  7 8     2024  169280                                           
#>  8 8     2023  172356                                           
#>  9 8     2022  169403                                           
#> 10 8     2021  169543                                           
#> # ℹ 395 more rows
```
…
